This is BibTeX, Version 0.99d (TeX Live 2013)
Capacity: max_strings=35307, hash_size=35307, hash_prime=30011
The top-level auxiliary file: SAC2016.aux
The style file: abbrv.bst
Database file #1: reference.bib
Warning--to sort, need author or key in EMBED
You've used 21 entries,
            2118 wiz_defined-function locations,
            627 strings with 6779 characters,
and the built_in function-call counts, 8479 in all, are:
= -- 834
> -- 327
< -- 15
+ -- 129
- -- 108
* -- 507
:= -- 1246
add.period$ -- 62
call.type$ -- 21
change.case$ -- 117
chr.to.int$ -- 0
cite$ -- 22
duplicate$ -- 393
empty$ -- 737
format.name$ -- 108
if$ -- 1921
int.to.chr$ -- 0
int.to.str$ -- 21
missing$ -- 19
newline$ -- 107
num.names$ -- 40
pop$ -- 165
preamble$ -- 1
purify$ -- 96
quote$ -- 0
skip$ -- 326
stack$ -- 0
substring$ -- 564
swap$ -- 158
text.length$ -- 15
text.prefix$ -- 0
top$ -- 0
type$ -- 84
warning$ -- 1
while$ -- 84
width$ -- 23
write$ -- 228
(There was 1 warning)
