\relax 
\citation{Ishio:2008}
\citation{Li:2005}
\citation{Li:2005}
\citation{better}
\citation{Li:2005}
\citation{Nguyen:2009}
\citation{Wasylkowski:2007}
\citation{better}
\citation{Li:2005}
\citation{Nguyen:2009}
\citation{Wasylkowski:2007}
\citation{EMBED}
\citation{Agrawal1}
\citation{WEB2}
\citation{SPADEalgorithm}
\@writefile{toc}{\contentsline {section}{\numberline {1}INTRODUCTION}{\thepage }}
\@writefile{toc}{\contentsline {section}{\numberline {2}SEQUENTIAL PATTERN MINING}{\thepage }}
\@writefile{toc}{\contentsline {section}{\numberline {3}PROPOSED APPROACH}{\thepage }}
\@writefile{toc}{\contentsline {subsection}{\numberline {3.1}Extracting Elements}{\thepage }}
\@writefile{lot}{\contentsline {table}{\numberline {1}{\ignorespaces Example of Input Database for SPADE Algorithm (The Minimum Support is 2)}}{\thepage }}
\newlabel{database}{{1}{\thepage }}
\@writefile{lot}{\contentsline {subtable}{\numberline{(a)}{\ignorespaces {Database}}}{\thepage }}
\@writefile{lot}{\contentsline {subtable}{\numberline{(b)}{\ignorespaces {1-subsequences}}}{\thepage }}
\@writefile{lot}{\contentsline {subtable}{\numberline{(c)}{\ignorespaces {2-subsequences}}}{\thepage }}
\citation{Dijkstra}
\citation{better}
\@writefile{lof}{\contentsline {figure}{\numberline {1}{\ignorespaces An Overview of the Proposed Approach}}{\thepage }}
\newlabel{design}{{1}{\thepage }}
\@writefile{toc}{\contentsline {subsection}{\numberline {3.2}Detecting Coding Patterns}{\thepage }}
\@writefile{toc}{\contentsline {subsection}{\numberline {3.3}Filtering and Merging Coding Patterns }{\thepage }}
\@writefile{lof}{\contentsline {figure}{\numberline {2}{\ignorespaces Rules for Extracted from The Control Structure}}{\thepage }}
\newlabel{conditional}{{2}{\thepage }}
\@writefile{lot}{\contentsline {table}{\numberline {2}{\ignorespaces Details of Subject Projects}}{\thepage }}
\newlabel{subject projects}{{2}{\thepage }}
\@writefile{toc}{\contentsline {section}{\numberline {4}CASE STUDY}{\thepage }}
\@writefile{toc}{\contentsline {subsection}{\numberline {4.1}Detected Coding Patterns}{\thepage }}
\@writefile{toc}{\contentsline {subsection}{\numberline {4.2}Validation of Detected Coding Patterns}{\thepage }}
\@writefile{toc}{\contentsline {subsection}{\numberline {4.3}Discussion}{\thepage }}
\citation{redundancy}
\citation{Liu:2006}
\citation{Michail:1999}
\citation{Michail:2000}
\citation{Agrawal:1994}
\citation{Hipp:2000}
\citation{Michail:1999}
\citation{Michail:2000}
\citation{Liu:2006}
\citation{Li:2005}
\citation{Agrawal:1994}
\citation{grahne:2003}
\citation{better}
\citation{Tan:2008}
\@writefile{lot}{\contentsline {table}{\numberline {3}{\ignorespaces The Number of Detected And Filtered Coding Patterns}}{\thepage }}
\newlabel{filtering}{{3}{\thepage }}
\@writefile{lot}{\contentsline {table}{\numberline {4}{\ignorespaces Example of Detected Coding Patterns}}{\thepage }}
\newlabel{example of detected coding patterns}{{4}{\thepage }}
\@writefile{toc}{\contentsline {section}{\numberline {5}RELATED WORK}{\thepage }}
\@writefile{lot}{\contentsline {table}{\numberline {5}{\ignorespaces Detection time in seconds}}{\thepage }}
\newlabel{detectionTime}{{5}{\thepage }}
\citation{Gil:2005}
\citation{Acharya:2007}
\citation{Xie:2006}
\citation{Wasylkowski:2007}
\citation{Nguyen:2009}
\citation{Ishio:2008}
\bibstyle{abbrv}
\bibdata{reference}
\bibcite{EMBED}{1}
\bibcite{Acharya:2007}{2}
\bibcite{Agrawal:1994}{3}
\bibcite{Agrawal1}{4}
\bibcite{Dijkstra}{5}
\bibcite{Gil:2005}{6}
\bibcite{grahne:2003}{7}
\bibcite{Hipp:2000}{8}
\bibcite{Ishio:2008}{9}
\bibcite{better}{10}
\bibcite{Li:2005}{11}
\bibcite{Liu:2006}{12}
\bibcite{Michail:1999}{13}
\bibcite{Michail:2000}{14}
\bibcite{Nguyen:2009}{15}
\bibcite{WEB2}{16}
\bibcite{Tan:2008}{17}
\bibcite{Wasylkowski:2007}{18}
\bibcite{Xie:2006}{19}
\bibcite{redundancy}{20}
\bibcite{SPADEalgorithm}{21}
\@writefile{toc}{\contentsline {section}{\numberline {6}CONCLUSION and FUTURE WORK}{\thepage }}
\@writefile{toc}{\contentsline {section}{\numberline {7}References}{\thepage }}
